Real time qPCR data analysis using R
…
 install.packages("tidyverse") 

 Load the Tidyverse package into R Studio environment:

library(tidyverse)

Importing the data

Now we will import the qPCR data (a csv document in this case) into the R Studio environment using the read.csv function and store it as a dataframe (df) called qpcr.

qpcr <- read.csv("qPCR_HEKs_OE_NKG2A-C_human.csv", stringsAsFactors = FALSE)
tibble(qpcr)

## # A tibble: 60 x 15
##    Well  Fluor Target Content Sample   Biological.Set.Name    Cq Cq.Mean Cq.Std..Dev
##    <chr> <chr> <chr>  <chr>   <chr>    <chr>               <dbl>   <dbl>       <int>
##  1 A01   SYBR  GAPDH  Unkn    Sample 1 empty vector         14.5    14.5           0
##  2 A02   SYBR  NKG2A  Unkn    Sample 1 empty vector         20.0    20.0           0
##  3 A03   SYBR  NKG2C  Unkn    Sample 1 empty vector         17.5    17.5           0
##  4 A04   SYBR  CD94   Unkn    Sample 1 empty vector         19.8    19.8           0
##  5 A05   SYBR  GAPDH  Unkn    Sample 1 pcDNA-NKG2A          14.5    14.5           0
##  6 A06   SYBR  NKG2A  Unkn    Sample 1 pcDNA-NKG2A          14.3    14.3           0
##  7 A07   SYBR  NKG2C  Unkn    Sample 1 pcDNA-NKG2A          19.2    19.2           0
##  8 A08   SYBR  CD94   Unkn    Sample 1 pcDNA-NKG2A          14.4    14.4           0
##  9 A09   SYBR  GAPDH  Unkn    Sample 1 pcDNA-NKG2C          14.5    14.5           0
## 10 A10   SYBR  NKG2A  Unkn    Sample 1 pcDNA-NKG2C          22.3    22.3           0
## # ... with 50 more rows, and 6 more variables: Starting.Quantity..SQ. <dbl>,
## #   Log.Starting.Quantity <dbl>, SQ.Mean <dbl>, SQ.Std..Dev <int>,
## #   Set.Point <int>, Well.Note <lgl>
…
